#                                                                            --- full sequence --- -------------- this domain -------------   hmm coord   ali coord   env coord
# target name        accession   tlen query name           accession   qlen   E-value  score  bias   #  of  c-Evalue  i-Evalue  score  bias  from    to  from    to  from    to  acc description of target
#------------------- ---------- ----- -------------------- ---------- ----- --------- ------ ----- --- --- --------- --------- ------ ----- ----- ----- ----- ----- ----- ----- ---- ---------------------
k141_93_13           -            132 Ribosom_S12_S23      PF00164.20   122   2.9e-55  183.0   1.6   1   1   8.4e-59   3.3e-55  182.8   1.6     1   122     2   123     2   123 0.99 # 9835 # 10230 # -1 # ID=2_13;partial=00;start_type=ATG;rbs_motif=GGA/GAG/AGG;rbs_spacer=5-10bp;gc_cont=0.644
k141_93_12           -            157 Ribosomal_S7         PF00177.16   148   1.2e-61  204.7   2.3   1   1   3.4e-65   1.3e-61  204.5   2.3     1   148     1   149     1   149 0.99 # 9368 # 9838 # -1 # ID=2_12;partial=00;start_type=GTG;rbs_motif=GGAGG;rbs_spacer=5-10bp;gc_cont=0.628
k141_5025_7          -            280 Ribosomal_L2         PF00181.18    77   1.5e-33  112.7   0.3   1   1   3.6e-36   1.4e-32  109.5   1.5     1    76    42   117    42   118 0.98 # 5916 # 6755 # 1 # ID=267_7;partial=00;start_type=ATG;rbs_motif=GGA/GAG/AGG;rbs_spacer=5-10bp;gc_cont=0.687
k141_5025_10         -            220 Ribosomal_S3_C       PF00189.15    85   1.7e-33  112.7   0.2   1   1     9e-37   3.5e-33  111.8   0.2     2    85   119   201   118   201 0.96 # 7517 # 8176 # 1 # ID=267_10;partial=00;start_type=ATG;rbs_motif=GGA/GAG/AGG;rbs_spacer=5-10bp;gc_cont=0.665
k141_5025_8          -            123 Ribosomal_S19        PF00203.16    81   1.5e-35  118.7   0.1   1   1   4.7e-39   1.8e-35  118.5   0.1     1    81     3    83     3    83 0.99 # 6780 # 7148 # 1 # ID=267_8;partial=00;start_type=ATG;rbs_motif=GGA/GAG/AGG;rbs_spacer=5-10bp;gc_cont=0.699
k141_5025_9          -            122 Ribosomal_L22        PF00237.14   105   1.3e-37  126.0   1.3   1   1   3.9e-41   1.5e-37  125.8   1.3     1   104     8   116     8   117 0.96 # 7152 # 7517 # 1 # ID=267_9;partial=00;start_type=ATG;rbs_motif=GGAGG;rbs_spacer=5-10bp;gc_cont=0.678
k141_5025_14         -            123 Ribosomal_L14        PF00238.14   122   4.6e-52  173.0   0.7   1   1   1.3e-55   5.1e-52  172.9   0.7     1   122     1   122     1   122 0.99 # 9222 # 9590 # 1 # ID=267_14;partial=00;start_type=GTG;rbs_motif=AGGAG;rbs_spacer=5-10bp;gc_cont=0.691
k141_5025_11         -            142 Ribosomal_L16        PF00252.13   133   3.8e-51  170.4   1.2   1   1   2.2e-54   4.2e-51  170.2   1.2     1   131     4   131     4   133 0.99 # 8261 # 8686 # 1 # ID=267_11;partial=00;start_type=ATG;rbs_motif=GGA/GAG/AGG;rbs_spacer=5-10bp;gc_cont=0.664
k141_1610_29         -            342 Ribosomal_L16        PF00252.13   133     0.048   11.5   0.0   1   2    0.0034       6.6    4.6   0.0    63    94    44    75    25    80 0.86 # 29238 # 30263 # -1 # ID=81_29;partial=00;start_type=ATG;rbs_motif=GGAG/GAGG;rbs_spacer=5-10bp;gc_cont=0.707
k141_1610_29         -            342 Ribosomal_L16        PF00252.13   133     0.048   11.5   0.0   2   2    0.0031       6.1    4.7   0.0    55    97   251   294   221   306 0.83 # 29238 # 30263 # -1 # ID=81_29;partial=00;start_type=ATG;rbs_motif=GGAG/GAGG;rbs_spacer=5-10bp;gc_cont=0.707
k141_5025_6          -             99 Ribosomal_L23        PF00276.15    92   2.7e-24   83.0   0.0   1   1   8.3e-28   3.3e-24   82.8   0.0     3    86     7    91     5    94 0.96 # 5611 # 5907 # 1 # ID=267_6;partial=00;start_type=ATG;rbs_motif=GGA/GAG/AGG;rbs_spacer=5-10bp;gc_cont=0.684
k141_5025_16         -            242 Ribosomal_L5         PF00281.14    56   1.1e-19   68.0   0.0   1   1   4.6e-23   1.8e-19   67.3   0.0     1    56    76   132    76   132 0.99 # 10039 # 10764 # 1 # ID=267_16;partial=00;start_type=ATG;rbs_motif=GGA/GAG/AGG;rbs_spacer=5-10bp;gc_cont=0.685
k141_5025_4          -            230 Ribosomal_L3         PF00297.17   263   7.9e-41  138.2   4.0   1   1   9.4e-44   3.7e-40  136.0   4.0     1   263     8   225     8   225 0.89 # 4073 # 4762 # 1 # ID=267_4;partial=00;start_type=ATG;rbs_motif=GGAG/GAGG;rbs_spacer=5-10bp;gc_cont=0.686
k141_4791_20         -            142 Ribosomal_L11        PF00298.14    69   4.1e-30  101.8   1.5   1   1   1.6e-33   6.2e-30  101.2   1.5     1    69    71   139    71   139 0.99 # 19597 # 20022 # 1 # ID=256_20;partial=00;start_type=ATG;rbs_motif=AGGAG;rbs_spacer=5-10bp;gc_cont=0.636
k141_1954_2          -             87 Ribosomal_S15        PF00312.17    83   3.7e-28   95.2   0.6   1   1   1.1e-31   4.4e-28   95.0   0.6     6    83     8    85     4    85 0.96 # 1489 # 1749 # -1 # ID=107_2;partial=00;start_type=ATG;rbs_motif=GGAG/GAGG;rbs_spacer=5-10bp;gc_cont=0.613
k141_1954_12         -            305 Ribosomal_S2         PF00318.15   211   8.4e-81  268.3   0.0   1   1   2.5e-84   9.8e-81  268.0   0.0     1   210     8   224     8   225 0.99 # 10704 # 11618 # -1 # ID=107_12;partial=00;start_type=ATG;rbs_motif=None;rbs_spacer=None;gc_cont=0.667
k141_5025_22         -            165 Ribosomal_S5         PF00333.15    67   6.4e-25   84.8   5.2   1   1   5.4e-28     1e-24   84.1   5.2     7    66     2    61     1    62 0.97 # 12789 # 13283 # 1 # ID=267_22;partial=00;start_type=GTG;rbs_motif=None;rbs_spacer=None;gc_cont=0.721
k141_1578_8          -            923 Ribosomal_S5         PF00333.15    67    0.0082   14.0   0.1   1   2   0.00017      0.34    8.8   0.0    22    54   788   820   773   824 0.91 # 6820 # 9588 # 1 # ID=77_8;partial=00;start_type=ATG;rbs_motif=GGA/GAG/AGG;rbs_spacer=5-10bp;gc_cont=0.732
k141_1578_8          -            923 Ribosomal_S5         PF00333.15    67    0.0082   14.0   0.1   2   2     0.073   1.4e+02    0.4   0.0    35    53   851   869   848   877 0.83 # 6820 # 9588 # 1 # ID=77_8;partial=00;start_type=ATG;rbs_motif=GGA/GAG/AGG;rbs_spacer=5-10bp;gc_cont=0.732
k141_5025_13         -             99 Ribosomal_S17        PF00366.15    69   1.5e-30  103.2   2.7   1   1   4.5e-34   1.8e-30  102.9   2.7     1    69    25    93    25    93 0.98 # 8913 # 9209 # 1 # ID=267_13;partial=00;start_type=ATG;rbs_motif=None;rbs_spacer=None;gc_cont=0.673
k141_1954_13         -            132 Ribosomal_S9         PF00380.14   121     7e-41  137.4   0.1   1   1     2e-44     8e-41  137.2   0.1     1   121    11   131    11   131 1.00 # 11773 # 12168 # -1 # ID=107_13;partial=00;start_type=ATG;rbs_motif=GGA/GAG/AGG;rbs_spacer=5-10bp;gc_cont=0.689
k141_5025_18         -            137 Ribosomal_S8         PF00410.14   129   7.1e-42  140.4   0.0   1   1     2e-45     8e-42  140.2   0.0     1   129     5   136     5   136 0.94 # 11228 # 11638 # 1 # ID=267_18;partial=00;start_type=ATG;rbs_motif=AGGA;rbs_spacer=5-10bp;gc_cont=0.689
k141_945_11          -            126 Ribosomal_S11        PF00411.14   110   1.8e-46  155.0   0.9   1   1   5.2e-50     2e-46  154.7   0.9     1   110    15   124    15   124 0.99 # 9459 # 9836 # 1 # ID=41_11;partial=00;start_type=ATG;rbs_motif=None;rbs_spacer=None;gc_cont=0.672
k141_4791_22         -            162 Ribosomal_L10        PF00466.15   100   2.8e-24   83.0   0.2   1   1   1.1e-27   4.1e-24   82.5   0.2     1   100     1    96     1    96 0.97 # 20718 # 21203 # 1 # ID=256_22;partial=00;start_type=ATG;rbs_motif=None;rbs_spacer=None;gc_cont=0.663
k141_1983_1          -            971 RNA_pol_Rpb2_6       PF00562.23   386  5.2e-125  415.2   0.0   1   2   0.00011      0.21    8.3   0.0     1    30   454   483   454   501 0.89 # 1 # 2913 # -1 # ID=108_1;partial=11;start_type=Edge;rbs_motif=None;rbs_spacer=None;gc_cont=0.680
k141_1983_1          -            971 RNA_pol_Rpb2_6       PF00562.23   386  5.2e-125  415.2   0.0   2   2  4.2e-125  8.1e-122  404.7   0.0     1   325   507   967   507   970 0.98 # 1 # 2913 # -1 # ID=108_1;partial=11;start_type=Edge;rbs_motif=None;rbs_spacer=None;gc_cont=0.680
k141_3057_1          -            317 RNA_pol_Rpb2_6       PF00562.23   386   1.2e-25   88.1   0.0   1   1   7.1e-29   1.4e-25   87.9   0.0   315   386   151   222    71   222 0.90 # 2 # 952 # 1 # ID=169_1;partial=10;start_type=Edge;rbs_motif=None;rbs_spacer=None;gc_cont=0.681
k141_1954_14         -            155 Ribosomal_L13        PF00572.13   128     1e-53  178.8   0.0   1   1   3.1e-57   1.2e-53  178.6   0.0     1   127    21   148    21   149 0.95 # 12171 # 12635 # -1 # ID=107_14;partial=00;start_type=ATG;rbs_motif=None;rbs_spacer=None;gc_cont=0.645
k141_5025_5          -            281 Ribosomal_L4         PF00573.17   192   4.8e-60  200.3   0.0   1   1   1.2e-63   4.8e-60  200.3   0.0     1   186    21   204    21   207 0.99 # 4765 # 5607 # 1 # ID=267_5;partial=00;start_type=ATG;rbs_motif=GGA/GAG/AGG;rbs_spacer=5-10bp;gc_cont=0.690
k141_3057_2          -           1439 RNA_pol_Rpb1_2       PF00623.15   166   3.3e-51  171.6   0.0   1   1   3.6e-53   1.4e-49  166.3   0.0     1   165   370   511   370   512 0.94 # 956 # 5272 # 1 # ID=169_2;partial=00;start_type=ATG;rbs_motif=AGGAG;rbs_spacer=5-10bp;gc_cont=0.658
k141_5025_16         -            242 Ribosomal_L5_C       PF00673.16    95     3e-37  124.3   0.0   1   1   1.2e-40   4.7e-37  123.7   0.0     2    94   137   229   136   230 0.99 # 10039 # 10764 # 1 # ID=267_16;partial=00;start_type=ATG;rbs_motif=GGA/GAG/AGG;rbs_spacer=5-10bp;gc_cont=0.685
k141_4791_21         -            230 Ribosomal_L1         PF00687.16   220   5.9e-46  154.6   0.0   1   1   1.7e-49   6.8e-46  154.4   0.0    15   220    33   220     7   220 0.93 # 20022 # 20711 # 1 # ID=256_21;partial=00;start_type=ATG;rbs_motif=GGAGG;rbs_spacer=5-10bp;gc_cont=0.664
k141_5025_12         -             72 Ribosomal_L29        PF00831.18    58   1.2e-21   74.2   1.1   1   1   3.4e-25   1.3e-21   74.1   1.1     3    58     9    64     7    64 0.98 # 8679 # 8894 # 1 # ID=267_12;partial=00;start_type=ATG;rbs_motif=GGAGG;rbs_spacer=5-10bp;gc_cont=0.685
k141_5025_20         -            119 Ribosomal_L18p       PF00861.17   119     8e-32  108.0   4.2   1   1   2.9e-35   1.1e-31  107.6   4.2     3   119    11   118     9   118 0.94 # 12193 # 12549 # 1 # ID=267_20;partial=00;start_type=ATG;rbs_motif=GGAGG;rbs_spacer=5-10bp;gc_cont=0.717
k141_5810_8          -             70 RNA_pol_Rpb6         PF01192.17    57   6.8e-05   20.6   0.3   1   1   4.7e-08   0.00018   19.2   0.3     5    56    11    60     7    61 0.77 # 7148 # 7357 # 1 # ID=292_8;partial=00;start_type=ATG;rbs_motif=None;rbs_spacer=None;gc_cont=0.633
k141_4681_12         -            282 TruB_N               PF01509.13   149   6.8e-43  144.4   0.0   1   1   4.5e-46   1.7e-42  143.1   0.0     3   149    26   170    24   170 0.96 # 12143 # 12988 # 1 # ID=250_12;partial=00;start_type=ATG;rbs_motif=GGAGG;rbs_spacer=5-10bp;gc_cont=0.717
k141_4408_7          -            446 SRP_SPB              PF02978.14   104   1.2e-32  110.3   1.7   1   1   3.1e-36   1.2e-32  110.3   1.7     3   104   328   424   326   424 0.95 # 6723 # 8060 # 1 # ID=230_7;partial=00;start_type=ATG;rbs_motif=None;rbs_spacer=None;gc_cont=0.670
k141_5025_22         -            165 Ribosomal_S5_C       PF03719.10    74   1.7e-31  105.4   1.2   1   1   7.2e-35   2.8e-31  104.7   1.2     1    74    71   144    71   144 0.99 # 12789 # 13283 # 1 # ID=267_22;partial=00;start_type=GTG;rbs_motif=None;rbs_spacer=None;gc_cont=0.721
k141_4791_20         -            142 Ribosomal_L11_N      PF03946.9     60   8.6e-29   96.9   0.1   1   1   3.5e-32   1.4e-28   96.2   0.1     1    60     8    66     8    66 0.97 # 19597 # 20022 # 1 # ID=256_20;partial=00;start_type=ATG;rbs_motif=AGGAG;rbs_spacer=5-10bp;gc_cont=0.636
k141_5025_7          -            280 Ribosomal_L2_C       PF03947.13   130   3.1e-51  170.6   2.1   1   1   1.5e-54     6e-51  169.7   2.1     2   129   125   248   124   249 0.98 # 5916 # 6755 # 1 # ID=267_7;partial=00;start_type=ATG;rbs_motif=GGA/GAG/AGG;rbs_spacer=5-10bp;gc_cont=0.687
k141_3057_1          -            317 RNA_pol_Rpb2_7       PF04560.15    82   5.1e-32  108.1   0.0   1   1   2.5e-35   9.6e-32  107.2   0.0     1    81   224   299   224   300 0.98 # 2 # 952 # 1 # ID=169_1;partial=10;start_type=Edge;rbs_motif=None;rbs_spacer=None;gc_cont=0.681
k141_1983_1          -            971 RNA_pol_Rpb2_2       PF04561.9    190   1.6e-21   74.6   0.2   1   1   1.4e-24   2.8e-21   73.9   0.2    86   190   137   245   127   245 0.92 # 1 # 2913 # -1 # ID=108_1;partial=11;start_type=Edge;rbs_motif=None;rbs_spacer=None;gc_cont=0.680
k141_4791_24         -            283 RNA_pol_Rpb2_2       PF04561.9    190   2.5e-06   25.1   0.0   1   1     2e-09   3.8e-06   24.5   0.0     1    72   150   220   150   243 0.91 # 21907 # 22755 # 1 # ID=256_24;partial=01;start_type=ATG;rbs_motif=None;rbs_spacer=None;gc_cont=0.654
k141_4791_24         -            283 RNA_pol_Rpb2_1       PF04563.10   203   1.5e-12   44.9   0.0   1   1   3.8e-15   7.5e-12   42.7   0.0     2   186    22   205    21   224 0.83 # 21907 # 22755 # 1 # ID=256_24;partial=01;start_type=ATG;rbs_motif=None;rbs_spacer=None;gc_cont=0.654
k141_1983_1          -            971 RNA_pol_Rpb2_1       PF04563.10   203   2.3e-06   24.8   0.0   1   1   1.9e-09   3.7e-06   24.1   0.0   149   203   179   301    35   301 0.77 # 1 # 2913 # -1 # ID=108_1;partial=11;start_type=Edge;rbs_motif=None;rbs_spacer=None;gc_cont=0.680
k141_1983_1          -            971 RNA_pol_Rpb2_3       PF04565.11    68   3.3e-30  101.7   0.0   1   1   2.1e-33   8.1e-30  100.5   0.0     1    68   305   374   305   374 0.99 # 1 # 2913 # -1 # ID=108_1;partial=11;start_type=Edge;rbs_motif=None;rbs_spacer=None;gc_cont=0.680
k141_3057_2          -           1439 RNA_pol_Rpb1_1       PF04997.7    337   7.5e-87  289.8   0.0   1   1   4.1e-90   1.6e-86  288.7   0.0    20   337    49   368    43   368 0.90 # 956 # 5272 # 1 # ID=169_2;partial=00;start_type=ATG;rbs_motif=AGGAG;rbs_spacer=5-10bp;gc_cont=0.658
k141_3057_2          -           1439 RNA_pol_Rpb1_4       PF05000.12   108   1.6e-18   64.5   0.3   1   1   1.1e-21   4.1e-18   63.2   0.3     1   108   697   784   697   784 0.90 # 956 # 5272 # 1 # ID=169_2;partial=00;start_type=ATG;rbs_motif=AGGAG;rbs_spacer=5-10bp;gc_cont=0.658
k141_4681_10         -            884 IF-2                 PF11987.3    109   2.1e-36  122.2   0.1   1   1   1.2e-39   4.8e-36  121.0   0.1     2   108   660   766   659   767 0.98 # 9065 # 11716 # 1 # ID=250_10;partial=00;start_type=TTG;rbs_motif=GGAGG;rbs_spacer=5-10bp;gc_cont=0.696
k141_4861_35         -            923 TIGR00344            TIGR00344    847  1.3e-245  815.4   0.0   1   1  1.2e-248  1.6e-245  815.1   0.0    23   846     1   896     1   897 0.96 # 32386 # 35154 # -1 # ID=259_35;partial=00;start_type=TTG;rbs_motif=GGA/GAG/AGG;rbs_spacer=5-10bp;gc_cont=0.712
k141_2216_5          -            408 TIGR00344            TIGR00344    847   9.5e-36  121.1   0.0   1   1   8.8e-39   1.2e-35  120.8   0.0   472   846    19   379     3   380 0.86 # 2930 # 4153 # -1 # ID=124_5;partial=00;start_type=ATG;rbs_motif=GGA/GAG/AGG;rbs_spacer=5-10bp;gc_cont=0.747
k141_2972_1          -            316 TIGR00344            TIGR00344    847    0.0016   14.5   0.0   1   1   1.6e-06    0.0021   14.1   0.0   554   680    74   204    58   228 0.80 # 3 # 950 # -1 # ID=165_1;partial=10;start_type=ATG;rbs_motif=None;rbs_spacer=None;gc_cont=0.669
k141_2972_3          -            707 TIGR00422            TIGR00422    863    2e-249  827.8   0.0   1   1  6.1e-252  3.4e-249  827.0   0.0     2   659     7   700     6   705 0.93 # 1923 # 4043 # 1 # ID=165_3;partial=00;start_type=ATG;rbs_motif=None;rbs_spacer=None;gc_cont=0.696
k141_3263_7          -           1072 TIGR00422            TIGR00422    863  9.7e-108  359.0   0.0   1   2   5.2e-31   2.9e-28   96.1   0.0     9   233    25   263    20   272 0.81 # 3801 # 7016 # 1 # ID=179_7;partial=00;start_type=GTG;rbs_motif=GGAG/GAGG;rbs_spacer=5-10bp;gc_cont=0.691
k141_3263_7          -           1072 TIGR00422            TIGR00422    863  9.7e-108  359.0   0.0   2   2   8.8e-81   4.9e-78  260.8   0.0   256   818   348   923   340   941 0.90 # 3801 # 7016 # 1 # ID=179_7;partial=00;start_type=GTG;rbs_motif=GGAG/GAGG;rbs_spacer=5-10bp;gc_cont=0.691
k141_96_31           -            833 TIGR00422            TIGR00422    863   5.2e-67  224.3   4.6   1   6   8.4e-25   4.7e-22   75.6   0.2     3   188    18   188    16   191 0.88 # 28684 # 31182 # -1 # ID=3_31;partial=00;start_type=ATG;rbs_motif=None;rbs_spacer=None;gc_cont=0.671
k141_96_31           -            833 TIGR00422            TIGR00422    863   5.2e-67  224.3   4.6   2   6   0.00013     0.073    8.7   0.0   342   381   190   226   185   242 0.81 # 28684 # 31182 # -1 # ID=3_31;partial=00;start_type=ATG;rbs_motif=None;rbs_spacer=None;gc_cont=0.671
k141_96_31           -            833 TIGR00422            TIGR00422    863   5.2e-67  224.3   4.6   3   6    0.0022       1.2    4.7   0.3   211   233   270   292   262   301 0.90 # 28684 # 31182 # -1 # ID=3_31;partial=00;start_type=ATG;rbs_motif=None;rbs_spacer=None;gc_cont=0.671
k141_96_31           -            833 TIGR00422            TIGR00422    863   5.2e-67  224.3   4.6   4   6   3.3e-12   1.8e-09   33.9   0.0   241   330   334   439   328   448 0.90 # 28684 # 31182 # -1 # ID=3_31;partial=00;start_type=ATG;rbs_motif=None;rbs_spacer=None;gc_cont=0.671
k141_96_31           -            833 TIGR00422            TIGR00422    863   5.2e-67  224.3   4.6   5   6   1.4e-24   7.5e-22   74.9   0.0   398   583   448   668   443   714 0.83 # 28684 # 31182 # -1 # ID=3_31;partial=00;start_type=ATG;rbs_motif=None;rbs_spacer=None;gc_cont=0.671
k141_96_31           -            833 TIGR00422            TIGR00422    863   5.2e-67  224.3   4.6   6   6   7.5e-08   4.2e-05   19.5   0.0   680   738   731   785   724   812 0.76 # 28684 # 31182 # -1 # ID=3_31;partial=00;start_type=ATG;rbs_motif=None;rbs_spacer=None;gc_cont=0.671
k141_2516_7          -            512 TIGR00422            TIGR00422    863   1.2e-16   57.7   0.0   1   2   4.2e-12   2.3e-09   33.5   0.1    43    91    12    61     2    83 0.83 # 11706 # 13241 # 1 # ID=135_7;partial=00;start_type=ATG;rbs_motif=GGAGG;rbs_spacer=5-10bp;gc_cont=0.691
k141_2516_7          -            512 TIGR00422            TIGR00422    863   1.2e-16   57.7   0.0   2   2   1.4e-08   7.8e-06   21.9   0.0   454   681   231   453   224   491 0.67 # 11706 # 13241 # 1 # ID=135_7;partial=00;start_type=ATG;rbs_motif=GGAGG;rbs_spacer=5-10bp;gc_cont=0.691
k141_2972_4          -            188 TIGR00422            TIGR00422    863   1.2e-12   44.4   0.0   1   1   2.4e-15   1.4e-12   44.2   0.0   691   861     1   166     1   168 0.95 # 4113 # 4676 # 1 # ID=165_4;partial=00;start_type=GTG;rbs_motif=None;rbs_spacer=None;gc_cont=0.716
k141_1769_28         -            548 TIGR00422            TIGR00422    863   4.3e-05   19.4   0.0   1   2   0.00022      0.12    8.0   0.0    29    73   112   156   102   190 0.79 # 25195 # 26838 # -1 # ID=95_28;partial=00;start_type=GTG;rbs_motif=GGA/GAG/AGG;rbs_spacer=5-10bp;gc_cont=0.702
k141_1769_28         -            548 TIGR00422            TIGR00422    863   4.3e-05   19.4   0.0   2   2   8.7e-05     0.048    9.3   0.0   517   556   364   403   354   423 0.83 # 25195 # 26838 # -1 # ID=95_28;partial=00;start_type=GTG;rbs_motif=GGA/GAG/AGG;rbs_spacer=5-10bp;gc_cont=0.702
k141_4791_16         -            512 TIGR00422            TIGR00422    863   0.00037   16.3   0.0   1   1   1.1e-06    0.0006   15.7   0.0   484   574   253   342   230   375 0.76 # 15969 # 17504 # 1 # ID=256_16;partial=00;start_type=GTG;rbs_motif=GGA/GAG/AGG;rbs_spacer=5-10bp;gc_cont=0.658
#
# Program:         hmmsearch
# Version:         3.1b2 (February 2015)
# Pipeline mode:   SEARCH
# Query file:      /tmp/f67348c6-84a1-4f3c-872e-46a8a80c6fff
# Target file:     9_binning_eval/bins/metabat_bin.6/genes.faa
# Option settings: hmmsearch --domtblout 9_binning_eval/bins/metabat_bin.6/hmmer.tree.txt --noali --notextw -E 0.1 --domE 0.1 --cpu 1 /tmp/f67348c6-84a1-4f3c-872e-46a8a80c6fff 9_binning_eval/bins/metabat_bin.6/genes.faa 
# Current dir:     /data/data/jfrank/edu/msc_meta_course/test
# Date:            Wed Nov  8 11:39:38 2017
# [ok]
